<?xml version="1.0" encoding="utf-8"?>
<!-- Generator: Adobe Illustrator 19.0.0, SVG Export Plug-In . SVG Version: 6.00 Build 0)  -->
<svg version="1.1" id="Layer_1" xmlns="http://www.w3.org/2000/svg" xmlns:xlink="http://www.w3.org/1999/xlink" x="0px" y="0px"
	 viewBox="0 0 194.1 194.1" style="enable-background:new 0 0 194.1 194.1;" xml:space="preserve">
<style type="text/css">
	.st0{fill:#44A5DD;}
	.st1{fill:none;stroke:#44A5DD;stroke-width:2;stroke-linecap:round;stroke-miterlimit:10;}
	.st2{fill:none;stroke:#F2916E;stroke-width:3;stroke-miterlimit:10;}
	.st3{opacity:0.25;fill:#525360;}
	.st4{clip-path:url(#SVGID_2_);}
	.st5{fill:#F1F2F2;}
	.st6{opacity:0.25;clip-path:url(#SVGID_4_);}
	.st7{clip-path:url(#SVGID_6_);}
	.st8{opacity:0.25;fill:none;stroke:#44A5DD;stroke-width:2;stroke-miterlimit:10;}
	.st9{opacity:0.25;fill:none;stroke:#525360;stroke-miterlimit:10;}
	.st10{fill:none;stroke:#44A5DD;stroke-width:3;stroke-miterlimit:10;}
	.st11{clip-path:url(#SVGID_8_);}
	.st12{fill:none;stroke:#44A5DD;stroke-width:2;stroke-miterlimit:10;}
	.st13{fill:#F1F2F2;stroke:#44A5DD;stroke-width:2;stroke-miterlimit:10;}
	.st14{fill:#F1F2F2;stroke:#44A5DD;stroke-width:3;stroke-miterlimit:10;}
	.st15{fill:none;}
	.st16{opacity:0.25;clip-path:url(#XMLID_18_);}
</style>
<symbol  id="New_Symbol_2" viewBox="-50 -30.9 99.9 61.7">
	<g>
		<g>
			<path id="XMLID_12_" class="st0" d="M37.7,27.2l8.5-31.9l-84-22.5l-8.5,31.9L37.7,27.2 M39.9,30.9L-50,6.8l10.1-37.7L50-6.8
				L39.9,30.9L39.9,30.9z"/>
		</g>
		<line class="st1" x1="-35.5" y1="-0.7" x2="14.7" y2="12.7"/>
		<line class="st1" x1="-33.5" y1="-8.4" x2="-6.4" y2="-1.2"/>
		<line class="st1" x1="-30.4" y1="-15.9" x2="1.5" y2="-7.4"/>
		<line class="st1" x1="11.7" y1="4.7" x2="19.4" y2="6.8"/>
		<line class="st1" x1="25.2" y1="8.3" x2="33.9" y2="10.6"/>
		<polygon class="st1" points="38.2,-1.7 15.1,-7.9 13.2,-1.1 36.4,5.1 		"/>
	</g>
	<polyline class="st2" points="7,0.9 20,-4.1 25,26.9 	"/>
</symbol>
<g>
	<path class="st3" d="M-318.8,623.2c-63.4,0-115-51.6-115-115s51.6-115,115-115s115,51.6,115,115S-255.4,623.2-318.8,623.2z
		 M-318.8,393.9c-63,0-114.3,51.3-114.3,114.3s51.3,114.3,114.3,114.3s114.3-51.3,114.3-114.3S-255.8,393.9-318.8,393.9z"/>
	<g>
		<defs>
			<circle id="SVGID_1_" cx="-318.8" cy="508.2" r="96.7"/>
		</defs>
		<clipPath id="SVGID_2_">
			<use xlink:href="#SVGID_1_"  style="overflow:visible;"/>
		</clipPath>
		<g class="st4">
			<g>
				<path class="st0" d="M-365,548.9l-3.7-6c-1.5-0.3-7.9-1.6-13-6.1l0.9-1.1c5.4,4.7,12.6,5.8,12.6,5.8l0.3,0l2.5,4.1l1.8-4.6
					l0.4-0.1c0.1,0,7.2-1.4,12.4-6.3l1,1c-4.9,4.6-11.1,6.2-12.8,6.6L-365,548.9z"/>
				<path class="st0" d="M-368.6,553l-0.8-0.2c-10.4-2.8-16-8.4-16.2-8.6l1-1c0.1,0.1,5.3,5.2,14.7,8l0.9-8.1l1.4,0.2L-368.6,553z"
					/>
				<path class="st0" d="M-359.9,552.2l-3.8-10.2l1.3-0.5l3.2,8.8c2.2-1.1,9-4.8,11.3-10.2l1.3,0.6c-3,6.9-12.4,11.1-12.8,11.3
					L-359.9,552.2z"/>
				<path class="st0" d="M-369.3,518.4c-2.8,0-5-1.5-5.1-1.5l1.2-1.8c0,0,2.1,1.4,4.4,1.2c2.3-0.2,4.1-1.9,4.1-1.9l1.5,1.6
					c-0.1,0.1-2.4,2.2-5.4,2.5C-368.8,518.4-369,518.4-369.3,518.4z"/>
				<g>
					<path class="st0" d="M-349.4,541.3c-3.9-5.7-6.6-11.6-7.9-17.7l2.1-0.5c1.3,5.8,3.8,11.5,7.6,17L-349.4,541.3z"/>
					<path class="st0" d="M-382.5,543.6l-2-0.9c3.1-6.8,3.4-12.8,3.6-17.5l0-0.6l2.1,0.1l0,0.6C-378.9,530-379.2,536.4-382.5,543.6z
						"/>
					<path class="st0" d="M-367.9,532.1c-5.8,0-17.2-7.8-21.7-20c-0.1-0.2-0.3-0.5-0.5-0.7c-1.2-0.9-2.2-2.6-2.8-4.6
						c-0.6-2.1-0.6-4.1-0.1-5.5c0.1-0.2,0.2-0.6,0.1-0.9c-0.4-1.1-0.5-2.3-0.3-3.5c0.2-0.9,0.3-5.2,0.2-7.5l0-1.1l1.1,0
						c12.6,0.2,41.4-4.4,41.7-4.5l1.3-0.2l0,1.3c-0.1,2.2,0.2,7.2,0.3,8.9c1.9,0.9,3,4,2.6,7.9c-0.3,2.8-1.4,5.2-2.8,6.4
						c-0.2,0.2-0.3,0.5-0.4,0.8c-0.3,1.5-0.6,2.8-1,4.1c-3,10.5-11.4,18.4-17.1,18.9C-367.5,532.1-367.7,532.1-367.9,532.1z
						 M-390.9,490.6c0,2.2,0,5.8-0.3,7c-0.2,0.7-0.1,1.5,0.2,2.1c0.3,0.8,0.3,1.6,0,2.5c-0.3,0.8-0.4,2.3,0.2,4.2
						c0.5,1.5,1.2,2.9,2.1,3.5c0.6,0.4,1,1,1.2,1.6c4.1,11.1,14.6,18.5,19.7,18.5c0.1,0,0.2,0,0.4,0c4.4-0.4,12.3-7.2,15.2-17.4
						c0.4-1.2,0.7-2.5,0.9-3.9c0.2-0.9,0.6-1.6,1.2-2.1c0.8-0.7,1.7-2.5,2-5c0.3-3.3-0.7-5.6-1.6-5.7c-1-0.1-1-0.4-1.3-4.9
						c0-0.8-0.1-2.9-0.2-4.7C-356.7,487.1-379.3,490.5-390.9,490.6z"/>
					<path class="st0" d="M-394.9,549.1l-0.9-2c4.8-2.2,9.5-3.9,12.5-5l0.7,2C-385.6,545.2-390.2,547-394.9,549.1z"/>
					<path class="st0" d="M-337.3,543.9c-4.8-1.2-9.4-2-12.4-2.5l0.4-2.1c3,0.5,7.7,1.4,12.5,2.6L-337.3,543.9z"/>
				</g>
			</g>
			<path class="st0" d="M-375.1,494.3c-7.7,0-14.7-1.5-17.6-3.9l1.4-1.6c5.8,4.8,32.2,5.4,40.4-4.3l1.6,1.4
				C-354.4,491.8-365.3,494.3-375.1,494.3z"/>
			<path class="st0" d="M-392.2,491.6c-1,0-1.9-0.5-2.4-1.3c-1.8-2.5-0.8-8.1-0.6-8.8c0.4-1.2,1.6-1.2,4.6-1.1
				c3.2,0.2,9.3,0.4,19.2-0.4c8.9-0.8,14.3-1.7,17.4-2.3c3.4-0.6,4.6-0.8,5.5,0.1c0.8,0.9,1.7,3.2,1.4,5.5c-0.2,1.6-1,2.9-2.2,3.8
				l-1.2-1.8c0.8-0.6,1.2-1.3,1.3-2.3c0.2-1.6-0.5-3.2-0.9-3.7c-0.5-0.1-1.9,0.2-3.5,0.5c-3.2,0.6-8.6,1.6-17.6,2.4
				c-10,0.9-16.2,0.6-19.5,0.4c-1,0-2-0.1-2.5-0.1c-0.3,1.4-0.6,5.1,0.4,6.5c0.2,0.3,0.4,0.4,0.8,0.4L-392.2,491.6z"/>
			<path class="st0" d="M-395.4,489.2c-0.1,0-0.1,0-0.2-0.1c-0.9-0.3-2.9-0.8-4.2-3.9c-1.5-3.5-0.5-9.1,2.4-14
				c2.7-4.6,9.5-12.6,23.9-13.8c14.5-1.3,22.5,5.1,26,9c3.7,4.2,5.6,9.3,4.9,13c-0.7,3.6-2.8,5.2-4.1,6.2c-0.3,0.2-0.6,0.5-0.7,0.6
				l-1.6-1.5c0.3-0.3,0.6-0.5,1-0.8c1.1-0.9,2.7-2.1,3.3-4.9c0.5-2.6-0.6-7-4.4-11.2c-3.2-3.6-10.6-9.4-24.2-8.3
				c-13.5,1.2-19.7,8.5-22.3,12.8c-3,5-3.3,9.8-2.3,12.1c0.9,2.2,2.1,2.5,2.8,2.7c0.3,0.1,0.5,0.2,0.8,0.3l-1.3,1.7
				C-395.5,489.2-395.4,489.2-395.4,489.2z"/>
			<g>
				<path class="st5" d="M-365.7,481.3c0.4,4.2-1.9,7.8-5,8.1c-3.1,0.3-6-2.9-6.3-7.1s2-5.9,5.2-6.2
					C-368.7,475.8-366,477.1-365.7,481.3z"/>
				<path class="st0" d="M-371.1,490.4c-3.5,0-6.6-3.5-7-8.1c-0.2-2.3,0.3-4.1,1.6-5.4c1.1-1.1,2.6-1.8,4.6-1.9c0.3,0,0.6,0,0.9,0
					c3.8,0,6.1,2.3,6.4,6.2c0.4,4.8-2.3,8.9-6,9.2C-370.8,490.4-370.9,490.4-371.1,490.4z M-371.1,477.1c-0.2,0-0.5,0-0.7,0
					c-1.4,0.1-2.5,0.6-3.2,1.3c-0.8,0.8-1.1,2.1-1,3.7c0.3,3.6,2.6,6.3,5.2,6.1c2.5-0.2,4.3-3.3,4-6.9
					C-367,478.5-368.4,477.1-371.1,477.1z"/>
			</g>
			<g>
				<path class="st5" d="M-368.3,482c0.2,2.2-1,4.1-2.6,4.2s-3.1-1.5-3.3-3.7s1.1-3.1,2.7-3.2C-369.9,479.1-368.5,479.8-368.3,482z"
					/>
				<path class="st0" d="M-371.2,486.9c-1.9,0-3.6-1.9-3.8-4.4c-0.2-2.3,1.1-3.8,3.4-4c0.2,0,0.3,0,0.5,0c2.1,0,3.3,1.2,3.5,3.4
					c0.1,1.2-0.2,2.4-0.7,3.3c-0.6,1-1.5,1.6-2.5,1.7C-371,486.9-371.1,486.9-371.2,486.9z M-371.2,479.9c-0.1,0-0.2,0-0.4,0
					c-1.5,0.1-2.2,0.9-2.1,2.5c0.2,1.7,1.3,3.2,2.5,3c0.6,0,1.1-0.4,1.5-1c0.4-0.7,0.6-1.5,0.5-2.4
					C-369.2,480.6-369.8,479.9-371.2,479.9z"/>
			</g>
			<path class="st0" d="M-410.2,562.4l-6.7-76.3c-2.2-25.5,16.7-48,42.2-50.3c1.4-0.1,2.7-0.2,4.1-0.2c11.6,0,22.6,4.3,31.2,12.1
				c8.6,7.9,13.9,18.6,15,30.2l6.7,76.3L-410.2,562.4z M-370.6,437.9c-1.3,0-2.6,0.1-3.9,0.2c-24.3,2.1-42.3,23.6-40.2,47.9
				l6.5,74.2l88.1-7.7l-6.5-74.2C-328.6,455.6-347.9,437.9-370.6,437.9z"/>
			
				<rect x="-366.6" y="499.8" transform="matrix(8.691406e-002 0.9962 -0.9962 8.691406e-002 209.8814 861.7275)" class="st0" width="2.9" height="91.1"/>
			<g>
				<g>
					<polygon class="st5" points="-394.3,560.6 -340,544.2 -334.8,560.1 -389.1,576.6 					"/>
					<path class="st0" d="M-340.7,545.5l4.5,13.9l-52.2,15.9l-4.5-13.9L-340.7,545.5 M-339.3,542.8l-56.3,17.1l5.8,18l56.3-17.1
						L-339.3,542.8L-339.3,542.8z"/>
				</g>
				<g>
					<line class="st5" x1="-386.7" y1="562.8" x2="-355.2" y2="553.2"/>
					<path class="st0" d="M-386.7,563.5c-0.3,0-0.6-0.2-0.7-0.5c-0.1-0.4,0.1-0.8,0.5-0.9l31.5-9.6c0.4-0.1,0.8,0.1,0.9,0.5
						c0.1,0.4-0.1,0.8-0.5,0.9l-31.5,9.6C-386.6,563.5-386.6,563.5-386.7,563.5z"/>
				</g>
				<g>
					<line class="st5" x1="-385.5" y1="566.5" x2="-368.6" y2="561.4"/>
					<path class="st0" d="M-385.5,567.2c-0.3,0-0.6-0.2-0.7-0.5c-0.1-0.4,0.1-0.8,0.5-0.9l17-5.1c0.4-0.1,0.8,0.1,0.9,0.5
						c0.1,0.4-0.1,0.8-0.5,0.9l-17,5.1C-385.4,567.2-385.4,567.2-385.5,567.2z"/>
				</g>
				<g>
					<line class="st5" x1="-383.7" y1="570" x2="-363.7" y2="564"/>
					<path class="st0" d="M-383.7,570.7c-0.3,0-0.6-0.2-0.7-0.5c-0.1-0.4,0.1-0.8,0.5-0.9l20-6.1c0.4-0.1,0.8,0.1,0.9,0.5
						c0.1,0.4-0.1,0.8-0.5,0.9l-20,6.1C-383.6,570.7-383.6,570.7-383.7,570.7z"/>
				</g>
				<g>
					<line class="st5" x1="-357.2" y1="557.4" x2="-352.4" y2="555.9"/>
					<path class="st0" d="M-357.2,558.1c-0.3,0-0.6-0.2-0.7-0.5c-0.1-0.4,0.1-0.8,0.5-0.9l4.8-1.5c0.4-0.1,0.8,0.1,0.9,0.5
						c0.1,0.4-0.1,0.8-0.5,0.9l-4.8,1.5C-357.1,558.1-357.1,558.1-357.2,558.1z"/>
				</g>
				<g>
					<line class="st5" x1="-348.7" y1="554.8" x2="-343.3" y2="553.2"/>
					<path class="st0" d="M-348.7,555.5c-0.3,0-0.6-0.2-0.7-0.5c-0.1-0.4,0.1-0.8,0.5-0.9l5.4-1.7c0.4-0.1,0.8,0.1,0.9,0.5
						c0.1,0.4-0.1,0.8-0.5,0.9l-5.4,1.7C-348.6,555.5-348.7,555.5-348.7,555.5z"/>
				</g>
				<g>
					<polygon class="st5" points="-340.7,559 -355.3,563.4 -356.3,560.2 -341.8,555.8 					"/>
					<path class="st0" d="M-355.7,564.3l-1.5-4.6l15.9-4.8l1.5,4.6L-355.7,564.3z M-355.4,560.6l0.6,1.9l13.2-4l-0.6-1.9
						L-355.4,560.6z"/>
				</g>
			</g>
			<g>
				<path class="st0" d="M-236.8,537.6l-3.7-6c-1.5-0.3-7.9-1.6-13-6.1l0.9-1.1c5.4,4.7,12.6,5.8,12.6,5.8l0.3,0l2.5,4.1l1.8-4.6
					l0.4-0.1c0.1,0,7.2-1.4,12.4-6.3l1,1c-4.9,4.6-11.1,6.2-12.8,6.6L-236.8,537.6z"/>
				<path class="st0" d="M-240.4,541.8l-0.8-0.2c-10.4-2.8-16-8.4-16.2-8.6l1-1c0.1,0.1,5.3,5.2,14.7,8l0.9-8.1l1.4,0.2
					L-240.4,541.8z"/>
				<path class="st0" d="M-231.7,541l-3.8-10.2l1.3-0.5l3.2,8.8c2.2-1.1,9-4.8,11.3-10.2l1.3,0.6c-3,6.9-12.4,11.1-12.8,11.3
					L-231.7,541z"/>
				<path class="st0" d="M-241,507.2c-2.8,0-5-1.5-5.1-1.5l1.2-1.8c0,0,2.1,1.4,4.4,1.2c2.3-0.2,4.1-1.9,4.1-1.9l1.5,1.6
					c-0.1,0.1-2.4,2.2-5.4,2.5C-240.6,507.2-240.8,507.2-241,507.2z"/>
				<g>
					<path class="st0" d="M-221.2,530.1c-3.9-5.7-6.6-11.6-7.9-17.7l2.1-0.5c1.3,5.9,3.8,11.5,7.6,17L-221.2,530.1z"/>
					<path class="st0" d="M-254.2,532.4l-2-0.9c3.1-6.8,3.4-12.8,3.6-17.5l0-0.6l2.1,0.1l0,0.6
						C-250.7,518.8-250.9,525.2-254.2,532.4z"/>
					<path class="st0" d="M-239.7,520.9c-5.8,0-17.2-7.8-21.7-20c-0.1-0.2-0.3-0.5-0.5-0.7c-1.2-0.9-2.2-2.6-2.8-4.6
						c-0.6-2.1-0.6-4.1-0.1-5.5c0.1-0.2,0.2-0.6,0.1-0.9c-0.4-1.1-0.5-2.3-0.3-3.5c0.2-0.9,0.3-5.2,0.2-7.5l0-1.1l1.1,0
						c12.6,0.2,41.4-4.4,41.7-4.5l1.3-0.2l0,1.3c-0.1,2.2,0.2,7.2,0.3,8.9c1.9,0.9,3,4,2.6,7.9c-0.3,2.8-1.4,5.2-2.8,6.4
						c-0.2,0.2-0.3,0.5-0.4,0.8c-0.3,1.5-0.6,2.8-1,4.1c-3,10.5-11.4,18.4-17.1,18.9C-239.3,520.9-239.5,520.9-239.7,520.9z
						 M-262.6,479.4c0,2.2,0,5.8-0.3,7c-0.2,0.7-0.1,1.5,0.2,2.1c0.3,0.8,0.3,1.6,0,2.5c-0.3,0.8-0.4,2.3,0.1,4.2
						c0.5,1.5,1.2,2.9,2.1,3.5c0.6,0.4,1,1,1.2,1.6c4.1,11.1,14.6,18.5,19.7,18.5c0.1,0,0.2,0,0.4,0c4.4-0.4,12.3-7.2,15.2-17.4
						c0.4-1.2,0.7-2.5,0.9-3.9c0.2-0.9,0.6-1.6,1.2-2.1c0.8-0.7,1.7-2.5,2-5c0.3-3.3-0.7-5.6-1.6-5.7c-1-0.1-1-0.4-1.3-4.9
						c0-0.8-0.1-2.9-0.2-4.7C-228.5,475.9-251,479.3-262.6,479.4z"/>
					<path class="st0" d="M-266.7,537.9l-0.9-2c4.8-2.2,9.5-3.9,12.5-5l0.7,2C-257.4,534-262,535.7-266.7,537.9z"/>
					<path class="st0" d="M-209.1,532.6c-4.8-1.2-9.4-2-12.4-2.5l0.4-2.1c3,0.5,7.7,1.4,12.5,2.6L-209.1,532.6z"/>
				</g>
			</g>
			<path class="st0" d="M-247,483c-7.7,0-14.6-1.5-17.5-3.9l1.4-1.6c2.8,2.4,10.9,3.8,19.3,3.3c9.8-0.5,17.5-3.3,21.1-7.7l1.6,1.4
				c-4,4.8-12.3,7.9-22.6,8.4C-244.8,483-245.9,483-247,483z"/>
			<path class="st0" d="M-264,480.4c-1,0-1.9-0.5-2.4-1.3c-1.8-2.5-0.8-8.1-0.6-8.8c0.4-1.2,1.6-1.2,4.6-1.1
				c3.2,0.2,9.3,0.4,19.2-0.4c8.9-0.8,14.3-1.7,17.5-2.3c3.4-0.6,4.6-0.8,5.5,0.1c0.8,0.9,1.7,3.2,1.4,5.5c-0.2,1.6-1,2.9-2.2,3.8
				l-1.2-1.8c0.8-0.6,1.2-1.3,1.3-2.3c0.2-1.6-0.5-3.2-0.9-3.7c-0.4-0.1-1.9,0.2-3.5,0.5c-3.2,0.6-8.6,1.6-17.6,2.4
				c-10,0.9-16.2,0.6-19.5,0.4c-1,0-2-0.1-2.5-0.1c-0.3,1.4-0.6,5.1,0.4,6.5c0.2,0.3,0.4,0.4,0.8,0.4L-264,480.4z"/>
			<path class="st0" d="M-267.2,478c-0.1,0-0.1,0-0.2-0.1c-0.9-0.3-2.9-0.8-4.2-3.9c-1.5-3.5-0.5-9.1,2.4-14
				c2.7-4.6,9.5-12.6,23.9-13.8c14.5-1.3,22.5,5.1,26,9c3.7,4.2,5.6,9.3,4.9,13c-0.7,3.6-2.8,5.2-4.1,6.2c-0.3,0.2-0.6,0.5-0.7,0.6
				l-1.6-1.5c0.3-0.3,0.6-0.5,1-0.8c1.1-0.9,2.7-2.1,3.3-4.9c0.5-2.6-0.6-7-4.4-11.2c-3.2-3.6-10.6-9.5-24.2-8.3
				c-13.5,1.2-19.7,8.5-22.3,12.8c-3,5-3.3,9.8-2.3,12.1c0.9,2.2,2.1,2.5,2.8,2.7c0.3,0.1,0.5,0.2,0.8,0.3l-1.3,1.7
				C-267.2,478-267.2,478-267.2,478z"/>
			<g>
				<path class="st5" d="M-237.4,470c0.4,4.2-1.9,7.8-5,8.1s-6-2.9-6.3-7.1c-0.4-4.2,2-5.9,5.2-6.2
					C-240.5,464.6-237.8,465.9-237.4,470z"/>
				<path class="st0" d="M-242.8,479.2c-3.5,0-6.6-3.5-7-8.1c-0.4-4.3,1.9-7,6.2-7.3c0.3,0,0.6,0,0.9,0c3.8,0,6.1,2.3,6.4,6.2
					c0.4,4.8-2.3,8.9-6,9.2C-242.5,479.2-242.7,479.2-242.8,479.2z M-242.8,465.9c-0.2,0-0.5,0-0.7,0c-3.1,0.3-4.5,1.9-4.2,5
					c0.3,3.6,2.6,6.3,5.2,6.1c2.5-0.2,4.3-3.3,4-6.9C-238.8,467.3-240.2,465.9-242.8,465.9z"/>
			</g>
			<g>
				<path class="st5" d="M-240.1,470.7c0.2,2.2-1,4.1-2.6,4.2c-1.6,0.1-3.1-1.5-3.3-3.7s1.1-3.1,2.7-3.2
					C-241.7,467.9-240.3,468.5-240.1,470.7z"/>
				<path class="st0" d="M-242.9,475.7c-2,0-3.6-1.9-3.8-4.4c-0.2-2.3,1.1-3.8,3.4-4c0.2,0,0.3,0,0.5,0c2.1,0,3.3,1.2,3.5,3.4
					c0.1,1.2-0.2,2.4-0.7,3.3c-0.6,1-1.5,1.6-2.5,1.7C-242.7,475.7-242.8,475.7-242.9,475.7z M-242.9,468.7c-0.1,0-0.2,0-0.4,0
					c-1.5,0.1-2.2,0.9-2.1,2.5c0.2,1.7,1.3,3.2,2.5,3.1c0.6,0,1.1-0.4,1.5-1c0.4-0.7,0.6-1.5,0.5-2.4
					C-240.9,469.4-241.6,468.7-242.9,468.7z"/>
			</g>
			<path class="st0" d="M-282,551.2l-6.7-76.3c-2.2-25.5,16.7-48,42.2-50.3c1.4-0.1,2.7-0.2,4.1-0.2c11.6,0,22.6,4.3,31.2,12.1
				c8.6,7.9,13.9,18.6,15,30.2l6.7,76.3L-282,551.2z M-242.4,426.6c-1.3,0-2.6,0.1-3.9,0.2c-24.3,2.1-42.3,23.6-40.2,47.9l6.5,74.2
				l88.1-7.7l-6.5-74.2C-200.4,444.4-219.7,426.6-242.4,426.6z"/>
			
				<rect x="-238.3" y="488.6" transform="matrix(8.691406e-002 0.9962 -0.9962 8.691406e-002 315.8017 723.7242)" class="st0" width="2.9" height="91.1"/>
			<g>
				<g>
					<polygon class="st5" points="-266,549.4 -211.8,532.9 -206.6,548.9 -260.8,565.4 					"/>
					<path class="st0" d="M-212.5,534.3l4.5,13.9l-52.2,15.9l-4.5-13.9L-212.5,534.3 M-211.1,531.6l-56.3,17.1l5.8,18l56.3-17.1
						L-211.1,531.6L-211.1,531.6z"/>
				</g>
				<g>
					<line class="st5" x1="-258.5" y1="551.6" x2="-227" y2="542"/>
					<path class="st0" d="M-258.5,552.3c-0.3,0-0.6-0.2-0.7-0.5c-0.1-0.4,0.1-0.8,0.5-0.9l31.5-9.6c0.4-0.1,0.8,0.1,0.9,0.5
						c0.1,0.4-0.1,0.8-0.5,0.9l-31.5,9.6C-258.3,552.3-258.4,552.3-258.5,552.3z"/>
				</g>
				<g>
					<line class="st5" x1="-257.3" y1="555.3" x2="-240.3" y2="550.1"/>
					<path class="st0" d="M-257.3,556c-0.3,0-0.6-0.2-0.7-0.5c-0.1-0.4,0.1-0.8,0.5-0.9l17-5.1c0.4-0.1,0.8,0.1,0.9,0.5
						c0.1,0.4-0.1,0.8-0.5,0.9l-17,5.1C-257.1,556-257.2,556-257.3,556z"/>
				</g>
				<g>
					<line class="st5" x1="-255.5" y1="558.8" x2="-235.5" y2="552.7"/>
					<path class="st0" d="M-255.5,559.5c-0.3,0-0.6-0.2-0.7-0.5c-0.1-0.4,0.1-0.8,0.5-0.9l20-6.1c0.4-0.1,0.8,0.1,0.9,0.5
						c0.1,0.4-0.1,0.8-0.5,0.9l-20,6.1C-255.3,559.5-255.4,559.5-255.5,559.5z"/>
				</g>
				<g>
					<line class="st5" x1="-229" y1="546.2" x2="-224.1" y2="544.7"/>
					<path class="st0" d="M-229,546.9c-0.3,0-0.6-0.2-0.7-0.5c-0.1-0.4,0.1-0.8,0.5-0.9l4.8-1.5c0.4-0.1,0.8,0.1,0.9,0.5
						c0.1,0.4-0.1,0.8-0.5,0.9l-4.8,1.5C-228.8,546.9-228.9,546.9-229,546.9z"/>
				</g>
				<g>
					<line class="st5" x1="-220.5" y1="543.6" x2="-215" y2="541.9"/>
					<path class="st0" d="M-220.5,544.3c-0.3,0-0.6-0.2-0.7-0.5c-0.1-0.4,0.1-0.8,0.5-0.9l5.5-1.7c0.4-0.1,0.8,0.1,0.9,0.5
						c0.1,0.4-0.1,0.8-0.5,0.9l-5.5,1.7C-220.3,544.3-220.4,544.3-220.5,544.3z"/>
				</g>
				<g>
					<polygon class="st5" points="-212.5,547.8 -227,552.2 -228.1,549 -213.5,544.5 					"/>
					<path class="st0" d="M-227.5,553.1l-1.5-4.6l15.9-4.8l1.5,4.6L-227.5,553.1z M-227.2,549.4l0.6,1.9l13.2-4l-0.6-1.9
						L-227.2,549.4z"/>
				</g>
			</g>
			<g>
				<path class="st0" d="M-507.2,561.3l-3.7-6c-1.5-0.3-7.9-1.6-13-6.1l0.9-1.1c5.4,4.7,12.6,5.8,12.6,5.8l0.3,0l2.5,4.1l1.8-4.6
					l0.4-0.1c0.1,0,7.2-1.4,12.4-6.3l1,1c-4.9,4.6-11.1,6.2-12.8,6.6L-507.2,561.3z"/>
				<path class="st0" d="M-510.7,565.4l-0.8-0.2c-10.4-2.8-16-8.4-16.2-8.6l1-1c0.1,0.1,5.3,5.2,14.7,8l0.9-8.2l1.4,0.2
					L-510.7,565.4z"/>
				<path class="st0" d="M-502,564.6l-3.8-10.2l1.3-0.5l3.2,8.8c2.2-1.1,9-4.8,11.3-10.2l1.3,0.6c-3,6.9-12.4,11.1-12.8,11.3
					L-502,564.6z"/>
				<path class="st0" d="M-511.4,530.8c-2.8,0-5-1.5-5.1-1.5l1.2-1.8c0,0,2.1,1.4,4.4,1.2c2.3-0.2,4.1-1.9,4.1-1.9l1.5,1.6
					c-0.1,0.1-2.4,2.2-5.4,2.5C-510.9,530.8-511.2,530.8-511.4,530.8z"/>
				<g>
					<path class="st0" d="M-491.6,553.8c-3.9-5.7-6.6-11.6-7.9-17.7l2.1-0.5c1.3,5.9,3.8,11.5,7.6,17L-491.6,553.8z"/>
					<path class="st0" d="M-524.6,556.1l-2-0.9c3.1-6.8,3.4-12.8,3.6-17.5l0-0.6l2.1,0.1l0,0.6C-521,542.4-521.3,548.8-524.6,556.1z
						"/>
					<path class="st0" d="M-510,544.6c-5.8,0-17.2-7.8-21.7-20c-0.1-0.2-0.3-0.5-0.5-0.7c-1.2-0.9-2.2-2.6-2.8-4.6
						c-0.6-2.1-0.6-4.1-0.1-5.5c0.1-0.2,0.2-0.6,0.1-0.9c-0.4-1.1-0.5-2.3-0.3-3.5c0.2-0.9,0.3-5.2,0.2-7.5l0-1.1l1.1,0
						c12.6,0.2,41.4-4.4,41.7-4.5l1.3-0.2l0,1.3c-0.1,2.2,0.2,7.2,0.3,8.9c1.9,0.9,3,4,2.6,7.9c-0.3,2.8-1.4,5.2-2.8,6.4
						c-0.2,0.2-0.3,0.5-0.4,0.8c-0.3,1.5-0.6,2.8-1,4.1c-3,10.5-11.4,18.4-17.1,18.9C-509.6,544.6-509.8,544.6-510,544.6z M-533,503
						c0,2.2,0,5.8-0.3,7c-0.2,0.7-0.1,1.5,0.2,2.1c0.3,0.8,0.3,1.6,0,2.5c-0.3,0.8-0.4,2.3,0.2,4.2c0.5,1.5,1.2,2.9,2.1,3.5
						c0.6,0.4,1,1,1.2,1.6c4.1,11.1,14.6,18.5,19.7,18.5c0.1,0,0.2,0,0.4,0c4.4-0.4,12.3-7.2,15.2-17.4c0.4-1.2,0.7-2.5,0.9-3.9
						c0.2-0.9,0.6-1.6,1.2-2.1c0.8-0.7,1.7-2.5,2-5c0.3-3.3-0.7-5.6-1.6-5.7c-1-0.1-1-0.4-1.3-4.9c0-0.8-0.1-2.9-0.2-4.7
						C-498.9,499.6-521.4,502.9-533,503z"/>
					<path class="st0" d="M-537.1,561.5l-0.9-2c4.8-2.2,9.5-3.9,12.5-5l0.7,2C-527.7,557.7-532.3,559.4-537.1,561.5z"/>
					<path class="st0" d="M-479.5,556.3c-4.8-1.2-9.4-2-12.4-2.5l0.4-2.1c3,0.5,7.7,1.4,12.5,2.6L-479.5,556.3z"/>
				</g>
			</g>
			<path class="st0" d="M-517.3,506.7c-7.7,0-14.6-1.5-17.5-3.9l1.4-1.6c2.8,2.4,10.9,3.8,19.3,3.3c9.8-0.5,17.5-3.3,21.1-7.7
				l1.6,1.4c-4,4.8-12.3,7.9-22.6,8.4C-515.1,506.6-516.2,506.7-517.3,506.7z"/>
			<path class="st0" d="M-534.3,504.1c-1,0-1.9-0.5-2.4-1.3c-1.8-2.5-0.8-8.1-0.6-8.8c0.4-1.2,1.6-1.2,4.6-1.1
				c3.2,0.2,9.3,0.4,19.2-0.4c8.9-0.8,14.3-1.7,17.5-2.3c3.4-0.6,4.6-0.8,5.5,0.1c0.8,0.9,1.7,3.2,1.4,5.5c-0.2,1.6-1,2.9-2.2,3.8
				l-1.2-1.8c0.8-0.6,1.2-1.3,1.3-2.3c0.2-1.6-0.5-3.2-0.9-3.7c-0.5-0.1-1.9,0.2-3.5,0.5c-3.2,0.6-8.6,1.6-17.6,2.4
				c-10,0.9-16.2,0.6-19.5,0.4c-1,0-2-0.1-2.5-0.1c-0.3,1.4-0.6,5.1,0.4,6.5c0.2,0.3,0.4,0.4,0.8,0.4L-534.3,504.1z"/>
			<path class="st0" d="M-537.5,501.6c-0.1,0-0.1,0-0.2-0.1c-0.9-0.3-2.9-0.8-4.2-3.9c-1.5-3.5-0.5-9.1,2.4-14
				c2.7-4.6,9.5-12.6,23.9-13.8c14.5-1.3,22.5,5.1,26,9c3.7,4.2,5.6,9.3,4.9,13c-0.7,3.6-2.8,5.2-4.1,6.2c-0.3,0.2-0.6,0.5-0.7,0.6
				l-1.6-1.5c0.3-0.3,0.6-0.5,1-0.8c1.1-0.9,2.7-2.1,3.3-4.9c0.5-2.6-0.6-7-4.4-11.2c-3.2-3.6-10.6-9.5-24.2-8.3
				c-13.5,1.2-19.7,8.5-22.3,12.8c-3,5-3.3,9.8-2.3,12.1c0.9,2.2,2.1,2.5,2.8,2.7c0.3,0.1,0.5,0.2,0.8,0.3l-1.3,1.7
				C-537.6,501.6-537.5,501.6-537.5,501.6z"/>
			<g>
				<path class="st5" d="M-507.8,493.7c0.4,4.2-1.9,7.8-5,8.1s-6-2.9-6.3-7.1s2-5.9,5.2-6.2C-510.8,488.3-508.2,489.5-507.8,493.7z"
					/>
				<path class="st0" d="M-513.2,502.9c-3.5,0-6.6-3.5-7-8.1c-0.4-4.3,1.9-7,6.2-7.3c0.3,0,0.6,0,0.9,0c3.8,0,6.1,2.3,6.4,6.2
					c0.4,4.8-2.3,8.9-6,9.2C-512.9,502.8-513,502.9-513.2,502.9z M-513.2,489.6c-0.2,0-0.5,0-0.7,0c-3.1,0.3-4.5,1.9-4.2,5
					c0.3,3.6,2.6,6.3,5.2,6.1c2.5-0.2,4.3-3.3,4-6.9C-509.1,490.9-510.5,489.6-513.2,489.6z"/>
			</g>
			<g>
				<path class="st5" d="M-510.5,494.4c0.2,2.2-1,4.1-2.6,4.2c-1.6,0.1-3.1-1.5-3.3-3.7c-0.2-2.2,1.1-3.1,2.7-3.2
					C-512,491.5-510.6,492.2-510.5,494.4z"/>
				<path class="st0" d="M-513.3,499.3c-2,0-3.6-1.9-3.8-4.4c-0.2-2.3,1.1-3.8,3.4-4c0.2,0,0.3,0,0.5,0c2.1,0,3.3,1.2,3.5,3.4
					c0.1,1.2-0.2,2.4-0.7,3.3c-0.6,1-1.5,1.6-2.5,1.7C-513.1,499.3-513.2,499.3-513.3,499.3z M-513.3,492.4c-0.1,0-0.2,0-0.4,0
					c-1.5,0.1-2.2,0.9-2.1,2.5c0.2,1.7,1.3,3.2,2.5,3c0.6,0,1.1-0.4,1.5-1c0.4-0.7,0.6-1.5,0.5-2.4
					C-511.3,493-512,492.4-513.3,492.4z"/>
			</g>
			<path class="st0" d="M-552.3,574.9l-6.7-76.3c-2.2-25.5,16.7-48,42.2-50.3c1.4-0.1,2.7-0.2,4.1-0.2c11.6,0,22.6,4.3,31.2,12.1
				c8.6,7.9,13.9,18.6,15,30.2l6.7,76.3L-552.3,574.9z M-512.7,450.3c-1.3,0-2.6,0.1-3.9,0.2c-24.3,2.1-42.3,23.6-40.2,47.9
				l6.5,74.2l88.1-7.7l-6.5-74.2C-470.7,468-490,450.3-512.7,450.3z"/>
			
				<rect x="-508.7" y="512.2" transform="matrix(8.691406e-002 0.9962 -0.9962 8.691406e-002 92.5039 1014.6584)" class="st0" width="2.9" height="91.1"/>
			<g>
				<g>
					<polygon class="st5" points="-536.4,573.1 -482.1,556.6 -476.9,572.6 -531.2,589.1 					"/>
					<path class="st0" d="M-482.8,557.9l4.5,13.9l-52.2,15.9l-4.5-13.9L-482.8,557.9 M-481.4,555.3l-56.3,17.1l5.8,18l56.3-17.1
						L-481.4,555.3L-481.4,555.3z"/>
				</g>
				<g>
					<line class="st5" x1="-528.8" y1="575.2" x2="-497.3" y2="565.7"/>
					<path class="st0" d="M-528.8,576c-0.3,0-0.6-0.2-0.7-0.5c-0.1-0.4,0.1-0.8,0.5-0.9l31.5-9.6c0.4-0.1,0.8,0.1,0.9,0.5
						c0.1,0.4-0.1,0.8-0.5,0.9l-31.5,9.6C-528.7,575.9-528.8,576-528.8,576z"/>
				</g>
				<g>
					<line class="st5" x1="-527.6" y1="578.9" x2="-510.7" y2="573.8"/>
					<path class="st0" d="M-527.6,579.7c-0.3,0-0.6-0.2-0.7-0.5c-0.1-0.4,0.1-0.8,0.5-0.9l17-5.1c0.4-0.1,0.8,0.1,0.9,0.5
						c0.1,0.4-0.1,0.8-0.5,0.9l-17,5.1C-527.5,579.6-527.6,579.7-527.6,579.7z"/>
				</g>
				<g>
					<line class="st5" x1="-525.8" y1="582.5" x2="-505.8" y2="576.4"/>
					<path class="st0" d="M-525.8,583.2c-0.3,0-0.6-0.2-0.7-0.5c-0.1-0.4,0.1-0.8,0.5-0.9l20-6.1c0.4-0.1,0.8,0.1,0.9,0.5
						c0.1,0.4-0.1,0.8-0.5,0.9l-20,6.1C-525.7,583.2-525.8,583.2-525.8,583.2z"/>
				</g>
				<g>
					<line class="st5" x1="-499.3" y1="569.8" x2="-494.5" y2="568.4"/>
					<path class="st0" d="M-499.3,570.5c-0.3,0-0.6-0.2-0.7-0.5c-0.1-0.4,0.1-0.8,0.5-0.9l4.8-1.5c0.4-0.1,0.8,0.1,0.9,0.5
						c0.1,0.4-0.1,0.8-0.5,0.9l-4.8,1.5C-499.2,570.5-499.3,570.5-499.3,570.5z"/>
				</g>
				<g>
					<line class="st5" x1="-490.8" y1="567.3" x2="-485.4" y2="565.6"/>
					<path class="st0" d="M-490.8,568c-0.3,0-0.6-0.2-0.7-0.5c-0.1-0.4,0.1-0.8,0.5-0.9l5.5-1.7c0.4-0.1,0.8,0.1,0.9,0.5
						c0.1,0.4-0.1,0.8-0.5,0.9l-5.5,1.7C-490.7,568-490.8,568-490.8,568z"/>
				</g>
				<g>
					<polygon class="st5" points="-482.8,571.4 -497.4,575.8 -498.4,572.6 -483.9,568.2 					"/>
					<path class="st0" d="M-497.8,576.7l-1.5-4.6l15.9-4.8l1.5,4.6L-497.8,576.7z M-497.5,573.1l0.6,1.9l13.2-4l-0.6-1.9
						L-497.5,573.1z"/>
				</g>
			</g>
		</g>
	</g>
	<g>
		<defs>
			<circle id="SVGID_3_" cx="-318.8" cy="508.2" r="96.7"/>
		</defs>
		<clipPath id="SVGID_4_">
			<use xlink:href="#SVGID_3_"  style="overflow:visible;"/>
		</clipPath>
		<g class="st6">
			
				<use xlink:href="#New_Symbol_2"  width="99.9" height="61.7" id="XMLID_130_" x="-50" y="-30.9" transform="matrix(0.5441 0.3675 0.3675 -0.5441 -299.9469 582.0443)" style="overflow:visible;"/>
			
				<use xlink:href="#New_Symbol_2"  width="99.9" height="61.7" id="XMLID_129_" x="-50" y="-30.9" transform="matrix(0.5372 0.2049 0.2049 -0.5372 -326.3103 432.7945)" style="overflow:visible;"/>
			
				<use xlink:href="#New_Symbol_2"  width="99.9" height="61.7" id="XMLID_128_" x="-50" y="-30.9" transform="matrix(0.7936 -2.301837e-003 -2.301837e-003 -0.7936 -236.6044 618.2308)" style="overflow:visible;"/>
			
				<use xlink:href="#New_Symbol_2"  width="99.9" height="61.7" id="XMLID_127_" x="-50" y="-30.9" transform="matrix(0.7483 -0.6257 -0.6257 -0.7483 -332.5576 641.7158)" style="overflow:visible;"/>
			
				<use xlink:href="#New_Symbol_2"  width="99.9" height="61.7" id="XMLID_126_" x="-50" y="-30.9" transform="matrix(0.881 0.3548 0.3548 -0.881 -410.2208 603.6859)" style="overflow:visible;"/>
			
				<use xlink:href="#New_Symbol_2"  width="99.9" height="61.7" id="XMLID_125_" x="-50" y="-30.9" transform="matrix(0.2232 0.3792 0.3792 -0.2232 -311.9081 472.4135)" style="overflow:visible;"/>
		</g>
	</g>
</g>
<g>
	<g>
		<defs>
			<circle id="SVGID_5_" cx="91.2" cy="508.2" r="97"/>
		</defs>
		<clipPath id="SVGID_6_">
			<use xlink:href="#SVGID_5_"  style="overflow:visible;"/>
		</clipPath>
		<g class="st7">
			<polyline class="st8" points="-9.4,542.7 17.9,514 25.1,524.8 43,513.3 45.9,504.6 98.4,535.5 			"/>
			<polyline class="st8" points="18.6,542 34.4,526.9 41.6,536.3 47.4,539.1 48.1,541.3 			"/>
			<polyline class="st8" points="132.2,534.8 156.6,519.7 170.3,526.2 176,519 187.5,514.7 197.6,529.8 202.6,535.5 			"/>
		</g>
	</g>
	<circle class="st9" cx="91.2" cy="508.2" r="115"/>
	<g>
		<circle class="st10" cx="87.4" cy="475.9" r="2.8"/>
		<circle class="st10" cx="96.4" cy="475.9" r="2.8"/>
	</g>
	<g>
		<defs>
			<circle id="SVGID_7_" cx="91.2" cy="508.2" r="97"/>
		</defs>
		<clipPath id="SVGID_8_">
			<use xlink:href="#SVGID_7_"  style="overflow:visible;"/>
		</clipPath>
		<g class="st11">
			<path class="st12" d="M76.1,519c-4.6,2.4-13.7-0.2-20.1,2.9"/>
			<path class="st13" d="M87,562.1c34.4-4.1,61.2-5.6,73.9-6.5c40.5-2.6-16.6-12.1-74.8-5.8c-64.6,7.1-110.7-4-98.5-6.5
				s185.7-3.6,212.8-7.2"/>
			<path class="st12" d="M72.3,560c29.2-6,60.8-5.8,73.5-6.5c12.7-0.7,1-3.2-57.5-3.2c-80.5,0-112.8-4.3-100.6-6.8"/>
			<polygon class="st13" points="-1.2,618 91.9,554.2 185.1,618 			"/>
			<path class="st13" d="M64.6,572.9L64.6,572.9c-0.8,0-1.4-0.6-1.4-1.4v-9.3c0-0.8,0.6-1.4,1.4-1.4l0,0c0.8,0,1.4,0.6,1.4,1.4v9.3
				C66,572.3,65.4,572.9,64.6,572.9z"/>
			<path class="st13" d="M118.5,572.9L118.5,572.9c-0.8,0-1.4-0.6-1.4-1.4v-9.3c0-0.8,0.6-1.4,1.4-1.4l0,0c0.8,0,1.4,0.6,1.4,1.4
				v9.3C119.9,572.3,119.3,572.9,118.5,572.9z"/>
			<path class="st14" d="M120.5,567.5H63.4c-3.3-2.8-6-5.9-6-9.2v-3.3h69.2v3.3C126.5,561.7,123.8,564.7,120.5,567.5z"/>
			<path class="st13" d="M124.3,534.8H91.9H59.6v-34.7v-30.8c0-2.2,1.6-4.1,3.8-4.4h0c18.9-2.7,38.2-2.7,57.1,0h0
				c2.2,0.3,3.8,2.2,3.8,4.4v30.8V534.8z"/>
			<path class="st14" d="M131.4,555.2H91.9H52.4v-42.4v-37.7c0-2.7,2-5,4.6-5.3h0c23.1-3.3,46.6-3.3,69.8,0h0
				c2.7,0.4,4.6,2.7,4.6,5.3v37.7V555.2z"/>
			<rect x="52.4" y="526.5" class="st10" width="79.1" height="28.2"/>
			<path class="st12" d="M98.4,484.6H85.5c-3.5,0-6.3,2.8-6.3,6.3v63.9h25.4v-63.9C104.6,487.4,101.8,484.6,98.4,484.6z"/>
			<path class="st12" d="M121.1,492.2h-7.4c-3.5,0-6.3,2.8-6.3,6.3v28.2h19.9v-28.2C127.4,495,124.6,492.2,121.1,492.2z"/>
			<path class="st12" d="M70,492.2h-7.4c-3.5,0-6.3,2.8-6.3,6.3v28.2h19.9v-28.2C76.2,495,73.4,492.2,70,492.2z"/>
			<circle class="st10" cx="115.4" cy="533.5" r="2.8"/>
			<circle class="st12" cx="124.4" cy="533.5" r="2.8"/>
			<circle class="st12" cx="59" cy="533.5" r="2.8"/>
			<circle class="st10" cx="67.9" cy="533.5" r="2.8"/>
			<rect x="81.9" y="559.3" class="st12" width="18.8" height="7.6"/>
			<rect x="79.7" y="556.4" class="st12" width="25" height="2.9"/>
			<rect x="79.7" y="567.9" class="st12" width="25" height="2.9"/>
			<ellipse class="st10" cx="96.2" cy="562.6" rx="2.2" ry="3.6"/>
			<path class="st12" d="M107,521.2c6-3.8,16.3,2.2,20.1-0.7"/>
			<path class="st12" d="M79,521.9c10.3-6.2,16.1,5,25.2-2.9"/>
		</g>
	</g>
</g>
<g>
	<circle class="st9" cx="511.2" cy="508.2" r="115"/>
</g>
<g id="XMLID_245_">
	<path id="XMLID_257_" class="st0" d="M51,137.9l-3.7-6c-1.5-0.3-7.9-1.6-13-6.1l0.9-1.1c5.4,4.7,12.6,5.8,12.6,5.8l0.3,0l2.5,4.1
		l1.8-4.6l0.4-0.1c0.1,0,7.2-1.4,12.4-6.3l1,1c-4.9,4.6-11.1,6.2-12.8,6.6L51,137.9z"/>
	<path id="XMLID_256_" class="st0" d="M47.4,142l-0.8-0.2c-10.4-2.8-16-8.4-16.2-8.6l1-1c0.1,0.1,5.3,5.2,14.7,8l0.9-8.1l1.4,0.2
		L47.4,142z"/>
	<path id="XMLID_255_" class="st0" d="M56.1,141.2L52.3,131l1.3-0.5l3.2,8.8c2.2-1.1,9-4.8,11.3-10.2l1.3,0.6
		c-3,6.9-12.4,11.1-12.8,11.3L56.1,141.2z"/>
	<path id="XMLID_254_" class="st0" d="M46.7,107.4c-2.8,0-5-1.5-5.1-1.5l1.2-1.8c0,0,2.1,1.4,4.4,1.2c2.3-0.2,4.1-1.9,4.1-1.9
		l1.5,1.6c-0.1,0.1-2.4,2.2-5.4,2.5C47.2,107.4,47,107.4,46.7,107.4z"/>
	<g id="XMLID_246_">
		<path id="XMLID_253_" class="st0" d="M66.6,130.3c-3.9-5.7-6.6-11.6-7.9-17.7l2.1-0.5c1.3,5.8,3.8,11.5,7.6,17L66.6,130.3z"/>
		<path id="XMLID_252_" class="st0" d="M33.5,132.6l-2-0.9c3.1-6.8,3.4-12.8,3.6-17.5l0-0.6l2.1,0.1l0,0.6
			C37.1,119,36.8,125.4,33.5,132.6z"/>
		<path id="XMLID_249_" class="st0" d="M48.1,121.1c-5.8,0-17.2-7.8-21.7-20c-0.1-0.2-0.3-0.5-0.5-0.7c-1.2-0.9-2.2-2.6-2.8-4.6
			c-0.6-2.1-0.6-4.1-0.1-5.5c0.1-0.2,0.2-0.6,0.1-0.9c-0.4-1.1-0.5-2.3-0.3-3.5c0.2-0.9,0.3-5.2,0.2-7.5l0-1.1l1.1,0
			C36.6,77.6,65.4,73,65.7,73l1.3-0.2l0,1.3c-0.1,2.2,0.2,7.2,0.3,8.9c1.9,0.9,3,4,2.6,7.9c-0.3,2.8-1.4,5.2-2.8,6.4
			c-0.2,0.2-0.3,0.5-0.4,0.8c-0.3,1.5-0.6,2.8-1,4.1c-3,10.5-11.4,18.4-17.1,18.9C48.5,121.1,48.3,121.1,48.1,121.1z M25.1,79.6
			c0,2.2,0,5.8-0.3,7c-0.2,0.7-0.1,1.5,0.2,2.1c0.3,0.8,0.3,1.6,0,2.5c-0.3,0.8-0.4,2.3,0.2,4.2c0.5,1.5,1.2,2.9,2.1,3.5
			c0.6,0.4,1,1,1.2,1.6C32.6,111.6,43,119,48.1,119c0.1,0,0.2,0,0.4,0c4.4-0.4,12.3-7.2,15.2-17.4c0.4-1.2,0.7-2.5,0.9-3.9
			c0.2-0.9,0.6-1.6,1.2-2.1c0.8-0.7,1.7-2.5,2-5c0.3-3.3-0.7-5.6-1.6-5.7c-1-0.1-1-0.4-1.3-4.9c0-0.8-0.1-2.9-0.2-4.7
			C59.3,76.1,36.7,79.5,25.1,79.6z"/>
		<path id="XMLID_248_" class="st0" d="M21.1,138.1l-0.9-2c4.8-2.2,9.5-3.9,12.5-5l0.7,2C30.4,134.2,25.8,136,21.1,138.1z"/>
		<path id="XMLID_247_" class="st0" d="M78.7,132.9c-4.8-1.2-9.4-2-12.4-2.5l0.4-2.1c3,0.5,7.7,1.4,12.5,2.6L78.7,132.9z"/>
	</g>
</g>
<path id="XMLID_244_" class="st0" d="M40.9,83.3c-7.7,0-14.7-1.5-17.6-3.9l1.4-1.6c5.8,4.8,32.2,5.4,40.4-4.3l1.6,1.4
	C61.6,80.8,50.7,83.3,40.9,83.3z"/>
<path id="XMLID_243_" class="st0" d="M23.8,80.6c-1,0-1.9-0.5-2.4-1.3c-1.8-2.5-0.8-8.1-0.6-8.8c0.4-1.2,1.6-1.2,4.6-1.1
	c3.2,0.2,9.3,0.4,19.2-0.4c8.9-0.8,14.3-1.7,17.4-2.3c3.4-0.6,4.6-0.8,5.5,0.1c0.8,0.9,1.7,3.2,1.4,5.5c-0.2,1.6-1,2.9-2.2,3.8
	l-1.2-1.8c0.8-0.6,1.2-1.3,1.3-2.3c0.2-1.6-0.5-3.2-0.9-3.7c-0.5-0.1-1.9,0.2-3.5,0.5c-3.2,0.6-8.6,1.6-17.6,2.4
	c-10,0.9-16.2,0.6-19.5,0.4c-1,0-2-0.1-2.5-0.1c-0.3,1.4-0.6,5.1,0.4,6.5c0.2,0.3,0.4,0.4,0.8,0.4L23.8,80.6z"/>
<path id="XMLID_242_" class="st0" d="M20.6,78.2c-0.1,0-0.1,0-0.2-0.1c-0.9-0.3-2.9-0.8-4.2-3.9c-1.5-3.5-0.5-9.1,2.4-14
	c2.7-4.6,9.5-12.6,23.9-13.8c14.5-1.3,22.5,5.1,26,9c3.7,4.2,5.6,9.3,4.9,13c-0.7,3.6-2.8,5.2-4.1,6.2c-0.3,0.2-0.6,0.5-0.7,0.6
	L67,73.7c0.3-0.3,0.6-0.5,1-0.8c1.1-0.9,2.7-2.1,3.3-4.9c0.5-2.6-0.6-7-4.4-11.2c-3.2-3.6-10.6-9.4-24.2-8.3
	C29.2,49.7,23,57,20.4,61.3c-3,5-3.3,9.8-2.3,12.1c0.9,2.2,2.1,2.5,2.8,2.7c0.3,0.1,0.5,0.2,0.8,0.3l-1.3,1.7
	C20.5,78.2,20.6,78.2,20.6,78.2z"/>
<g id="XMLID_237_">
	<path id="XMLID_241_" class="st5" d="M50.3,70.3c0.4,4.2-1.9,7.8-5,8.1c-3.1,0.3-6-2.9-6.3-7.1s2-5.9,5.2-6.2
		C47.3,64.8,50,66.1,50.3,70.3z"/>
	<path id="XMLID_238_" class="st0" d="M44.9,79.4c-3.5,0-6.6-3.5-7-8.1c-0.2-2.3,0.3-4.1,1.6-5.4c1.1-1.1,2.6-1.8,4.6-1.9
		c0.3,0,0.6,0,0.9,0c3.8,0,6.1,2.3,6.4,6.2c0.4,4.8-2.3,8.9-6,9.2C45.2,79.4,45.1,79.4,44.9,79.4z M44.9,66.1c-0.2,0-0.5,0-0.7,0
		c-1.4,0.1-2.5,0.6-3.2,1.3c-0.8,0.8-1.1,2.1-1,3.7c0.3,3.6,2.6,6.3,5.2,6.1c2.5-0.2,4.3-3.3,4-6.9C49,67.5,47.6,66.1,44.9,66.1z"/>
</g>
<g id="XMLID_232_">
	<path id="XMLID_236_" class="st5" d="M47.7,71c0.2,2.2-1,4.1-2.6,4.2c-1.6,0.1-3.1-1.5-3.3-3.7s1.1-3.1,2.7-3.2
		C46.1,68.1,47.5,68.8,47.7,71z"/>
	<path id="XMLID_233_" class="st0" d="M44.8,75.9c-1.9,0-3.6-1.9-3.8-4.4c-0.2-2.3,1.1-3.8,3.4-4c0.2,0,0.3,0,0.5,0
		c2.1,0,3.3,1.2,3.5,3.4c0.1,1.2-0.2,2.4-0.7,3.3c-0.6,1-1.5,1.6-2.5,1.7C45,75.9,44.9,75.9,44.8,75.9z M44.8,68.9
		c-0.1,0-0.2,0-0.4,0c-1.5,0.1-2.2,0.9-2.1,2.5c0.2,1.7,1.3,3.2,2.5,3c0.6,0,1.1-0.4,1.5-1c0.4-0.7,0.6-1.5,0.5-2.4
		C46.8,69.6,46.2,68.9,44.8,68.9z"/>
</g>
<path id="XMLID_229_" class="st0" d="M5.8,151.4l-6.7-76.3c-2.2-25.5,16.7-48,42.2-50.3c1.4-0.1,2.7-0.2,4.1-0.2
	c11.6,0,22.6,4.3,31.2,12.1c8.6,7.9,13.9,18.6,15,30.2l6.7,76.3L5.8,151.4z M45.4,26.9c-1.3,0-2.6,0.1-3.9,0.2
	C17.2,29.2-0.9,50.7,1.2,75l6.5,74.2l88.1-7.7l-6.5-74.2C87.4,44.6,68.1,26.9,45.4,26.9z"/>
<rect id="XMLID_228_" x="49.4" y="88.8" transform="matrix(8.691406e-002 0.9962 -0.9962 8.691406e-002 180.2805 72.0234)" class="st0" width="2.9" height="91.1"/>
<g id="XMLID_112_">
	<g id="XMLID_223_">
		<polygon id="XMLID_227_" class="st5" points="21.7,149.6 76,133.2 81.2,149.1 26.9,165.6 		"/>
		<path id="XMLID_224_" class="st0" d="M75.3,134.5l4.5,13.9l-52.2,15.9l-4.5-13.9L75.3,134.5 M76.7,131.8l-56.3,17.1l5.8,18
			l56.3-17.1L76.7,131.8L76.7,131.8z"/>
	</g>
	<g id="XMLID_220_">
		<line id="XMLID_222_" class="st5" x1="29.3" y1="151.8" x2="60.8" y2="142.2"/>
		<path id="XMLID_221_" class="st0" d="M29.3,152.5c-0.3,0-0.6-0.2-0.7-0.5c-0.1-0.4,0.1-0.8,0.5-0.9l31.5-9.6
			c0.4-0.1,0.8,0.1,0.9,0.5c0.1,0.4-0.1,0.8-0.5,0.9l-31.5,9.6C29.4,152.5,29.4,152.5,29.3,152.5z"/>
	</g>
	<g id="XMLID_217_">
		<line id="XMLID_219_" class="st5" x1="30.5" y1="155.5" x2="47.4" y2="150.4"/>
		<path id="XMLID_218_" class="st0" d="M30.5,156.2c-0.3,0-0.6-0.2-0.7-0.5c-0.1-0.4,0.1-0.8,0.5-0.9l17-5.1
			c0.4-0.1,0.8,0.1,0.9,0.5c0.1,0.4-0.1,0.8-0.5,0.9l-17,5.1C30.6,156.2,30.6,156.2,30.5,156.2z"/>
	</g>
	<g id="XMLID_124_">
		<line id="XMLID_216_" class="st5" x1="32.3" y1="159" x2="52.3" y2="153"/>
		<path id="XMLID_215_" class="st0" d="M32.3,159.7c-0.3,0-0.6-0.2-0.7-0.5c-0.1-0.4,0.1-0.8,0.5-0.9l20-6.1
			c0.4-0.1,0.8,0.1,0.9,0.5c0.1,0.4-0.1,0.8-0.5,0.9l-20,6.1C32.4,159.7,32.4,159.7,32.3,159.7z"/>
	</g>
	<g id="XMLID_121_">
		<line id="XMLID_123_" class="st5" x1="58.8" y1="146.4" x2="63.6" y2="144.9"/>
		<path id="XMLID_122_" class="st0" d="M58.8,147.1c-0.3,0-0.6-0.2-0.7-0.5c-0.1-0.4,0.1-0.8,0.5-0.9l4.8-1.5
			c0.4-0.1,0.8,0.1,0.9,0.5c0.1,0.4-0.1,0.8-0.5,0.9l-4.8,1.5C58.9,147.1,58.9,147.1,58.8,147.1z"/>
	</g>
	<g id="XMLID_118_">
		<line id="XMLID_120_" class="st5" x1="67.3" y1="143.8" x2="72.7" y2="142.2"/>
		<path id="XMLID_119_" class="st0" d="M67.3,144.5c-0.3,0-0.6-0.2-0.7-0.5c-0.1-0.4,0.1-0.8,0.5-0.9l5.4-1.7
			c0.4-0.1,0.8,0.1,0.9,0.5c0.1,0.4-0.1,0.8-0.5,0.9l-5.4,1.7C67.4,144.5,67.3,144.5,67.3,144.5z"/>
	</g>
	<g id="XMLID_113_">
		<polygon id="XMLID_117_" class="st5" points="75.3,148 60.7,152.4 59.7,149.2 74.2,144.8 		"/>
		<path id="XMLID_114_" class="st0" d="M60.3,153.3l-1.5-4.6l15.9-4.8l1.5,4.6L60.3,153.3z M60.6,149.6l0.6,1.9l13.2-4l-0.6-1.9
			L60.6,149.6z"/>
	</g>
</g>
<path id="XMLID_111_" class="st0" d="M179.2,126.6l-3.7-6c-1.5-0.3-7.9-1.6-13-6.1l0.9-1.1c5.4,4.7,12.6,5.8,12.6,5.8l0.3,0l2.5,4.1
	l1.8-4.6l0.4-0.1c0.1,0,7.2-1.4,12.4-6.3l1,1c-4.9,4.6-11.1,6.2-12.8,6.6L179.2,126.6z"/>
<path id="XMLID_110_" class="st0" d="M175.6,130.8l-0.8-0.2c-10.4-2.8-16-8.4-16.2-8.6l1-1c0.1,0.1,5.3,5.2,14.7,8l0.9-8.1l1.4,0.2
	L175.6,130.8z"/>
<path id="XMLID_109_" class="st0" d="M184.3,130l-3.8-10.2l1.3-0.5l3.2,8.8c2.2-1.1,9-4.8,11.3-10.2l1.3,0.6
	c-3,6.9-12.4,11.1-12.8,11.3L184.3,130z"/>
<path id="XMLID_108_" class="st0" d="M175,96.2c-2.8,0-5-1.5-5.1-1.5l1.2-1.8c0,0,2.1,1.4,4.4,1.2c2.3-0.2,4.1-1.9,4.1-1.9l1.5,1.6
	c-0.1,0.1-2.4,2.2-5.4,2.5C175.4,96.2,175.2,96.2,175,96.2z"/>
<path id="XMLID_107_" class="st0" d="M194.8,119.1c-3.9-5.7-6.6-11.6-7.9-17.7l2.1-0.5c1.3,5.9,3.8,11.5,7.6,17L194.8,119.1z"/>
<path id="XMLID_106_" class="st0" d="M161.8,121.4l-2-0.9c3.1-6.8,3.4-12.8,3.6-17.5l0-0.6l2.1,0.1l0,0.6
	C165.3,107.8,165.1,114.2,161.8,121.4z"/>
<path id="XMLID_103_" class="st0" d="M176.3,109.9c-5.8,0-17.2-7.8-21.7-20c-0.1-0.2-0.3-0.5-0.5-0.7c-1.2-0.9-2.2-2.6-2.8-4.6
	c-0.6-2.1-0.6-4.1-0.1-5.5c0.1-0.2,0.2-0.6,0.1-0.9c-0.4-1.1-0.5-2.3-0.3-3.5c0.2-0.9,0.3-5.2,0.2-7.5l0-1.1l1.1,0
	c12.6,0.2,41.4-4.4,41.7-4.5l1.3-0.2l0,1.3c-0.1,2.2,0.2,7.2,0.3,8.9c1.9,0.9,3,4,2.6,7.9c-0.3,2.8-1.4,5.2-2.8,6.4
	c-0.2,0.2-0.3,0.5-0.4,0.8c-0.3,1.5-0.6,2.8-1,4.1c-3,10.5-11.4,18.4-17.1,18.9C176.7,109.9,176.5,109.9,176.3,109.9z M153.4,68.4
	c0,2.2,0,5.8-0.3,7c-0.2,0.7-0.1,1.5,0.2,2.1c0.3,0.8,0.3,1.6,0,2.5c-0.3,0.8-0.4,2.3,0.1,4.2c0.5,1.5,1.2,2.9,2.1,3.5
	c0.6,0.4,1,1,1.2,1.6c4.1,11.1,14.6,18.5,19.7,18.5c0.1,0,0.2,0,0.4,0c4.4-0.4,12.3-7.2,15.2-17.4c0.4-1.2,0.7-2.5,0.9-3.9
	c0.2-0.9,0.6-1.6,1.2-2.1c0.8-0.7,1.7-2.5,2-5c0.3-3.3-0.7-5.6-1.6-5.7c-1-0.1-1-0.4-1.3-4.9c0-0.8-0.1-2.9-0.2-4.7
	C187.5,64.9,165,68.3,153.4,68.4z"/>
<path id="XMLID_102_" class="st0" d="M149.3,126.9l-0.9-2c4.8-2.2,9.5-3.9,12.5-5l0.7,2C158.6,123,154,124.7,149.3,126.9z"/>
<path id="XMLID_101_" class="st0" d="M206.9,121.6c-4.8-1.2-9.4-2-12.4-2.5l0.4-2.1c3,0.5,7.7,1.4,12.5,2.6"/>
<path id="XMLID_100_" class="st0" d="M169,72c-7.7,0-14.6-1.5-17.5-3.9l1.4-1.6c2.8,2.4,10.9,3.8,19.3,3.3
	c9.8-0.5,17.5-3.3,21.1-7.7l1.6,1.4c-4,4.8-12.3,7.9-22.6,8.4C171.2,72,170.1,72,169,72z"/>
<path id="XMLID_99_" class="st0" d="M197.1,61.1c-0.2,1.6-1,2.9-2.2,3.8l-1.2-1.8c0.8-0.6,1.2-1.3,1.3-2.3c0.2-1.6-0.5-3.2-0.9-3.7
	c-0.4-0.1-1.9,0.2-3.5,0.5c-3.2,0.6-8.6,1.6-17.6,2.4c-10,0.9-16.2,0.6-19.5,0.4c-1,0-2-0.1-2.5-0.1c-0.3,1.4-0.6,5.1,0.4,6.5
	c0.2,0.3,0.4,0.4,0.8,0.4l-0.1,2.1c-1,0-1.9-0.5-2.4-1.3c-1.8-2.5-0.8-8.1-0.6-8.8c0.4-1.2,1.6-1.2,4.6-1.1
	c3.2,0.2,9.3,0.4,19.2-0.4c8.9-0.8,14.3-1.7,17.5-2.3c3.4-0.6,4.6-0.8,5.5,0.1"/>
<path id="XMLID_98_" class="st0" d="M195.2,45.6c-3.2-3.6-10.6-9.5-24.2-8.3c-13.5,1.2-19.7,8.5-22.3,12.8c-3,5-3.3,9.8-2.3,12.1
	c0.9,2.2,2.1,2.5,2.8,2.7c0.3,0.1,0.5,0.2,0.8,0.3l-1.3,1.7c0.1,0.1,0.1,0.1,0.1,0.1c-0.1,0-0.1,0-0.2-0.1c-0.9-0.3-2.9-0.8-4.2-3.9
	c-1.5-3.5-0.5-9.1,2.4-14c2.7-4.6,9.5-12.6,23.9-13.8c14.5-1.3,22.5,5.1,26,9"/>
<path id="XMLID_97_" class="st0" d="M196.9,64l-1.6-1.5c0.3-0.3,0.6-0.5,1-0.8c1.1-0.9,2.7-2.1,3.3-4.9"/>
<g id="XMLID_92_">
	<path id="XMLID_96_" class="st5" d="M178.6,59c0.4,4.2-1.9,7.8-5,8.1c-3.1,0.3-6-2.9-6.3-7.1c-0.4-4.2,2-5.9,5.2-6.2
		C175.5,53.6,178.2,54.9,178.6,59z"/>
	<path id="XMLID_93_" class="st0" d="M173.2,68.2c-3.5,0-6.6-3.5-7-8.1c-0.4-4.3,1.9-7,6.2-7.3c0.3,0,0.6,0,0.9,0
		c3.8,0,6.1,2.3,6.4,6.2c0.4,4.8-2.3,8.9-6,9.2C173.5,68.2,173.3,68.2,173.2,68.2z M173.2,54.9c-0.2,0-0.5,0-0.7,0
		c-3.1,0.3-4.5,1.9-4.2,5c0.3,3.6,2.6,6.3,5.2,6.1c2.5-0.2,4.3-3.3,4-6.9C177.2,56.3,175.8,54.9,173.2,54.9z"/>
</g>
<g id="XMLID_87_">
	<path id="XMLID_91_" class="st5" d="M175.9,59.7c0.2,2.2-1,4.1-2.6,4.2c-1.6,0.1-3.1-1.5-3.3-3.7s1.1-3.1,2.7-3.2
		C174.3,56.9,175.7,57.5,175.9,59.7z"/>
	<path id="XMLID_88_" class="st0" d="M173.1,64.7c-2,0-3.6-1.9-3.8-4.4c-0.2-2.3,1.1-3.8,3.4-4c0.2,0,0.3,0,0.5,0
		c2.1,0,3.3,1.2,3.5,3.4c0.1,1.2-0.2,2.4-0.7,3.3c-0.6,1-1.5,1.6-2.5,1.7C173.3,64.7,173.2,64.7,173.1,64.7z M173.1,57.7
		c-0.1,0-0.2,0-0.4,0c-1.5,0.1-2.2,0.9-2.1,2.5c0.2,1.7,1.3,3.2,2.5,3.1c0.6,0,1.1-0.4,1.5-1c0.4-0.7,0.6-1.5,0.5-2.4
		C175.1,58.4,174.4,57.7,173.1,57.7z"/>
</g>
<polyline id="XMLID_84_" class="st0" points="224.6,120.6 133.8,128.5 133.6,125.7 224.3,117.7 "/>
<polyline id="XMLID_83_" class="st5" points="209.4,137.9 155.2,154.4 150,138.4 204.2,121.9 "/>
<g id="XMLID_78_">
	<line id="XMLID_80_" class="st5" x1="157.5" y1="140.6" x2="189" y2="131"/>
	<path id="XMLID_79_" class="st0" d="M157.5,141.3c-0.3,0-0.6-0.2-0.7-0.5c-0.1-0.4,0.1-0.8,0.5-0.9l31.5-9.6
		c0.4-0.1,0.8,0.1,0.9,0.5c0.1,0.4-0.1,0.8-0.5,0.9l-31.5,9.6C157.7,141.3,157.6,141.3,157.5,141.3z"/>
</g>
<g id="XMLID_75_">
	<line id="XMLID_77_" class="st5" x1="158.7" y1="144.3" x2="175.7" y2="139.1"/>
	<path id="XMLID_76_" class="st0" d="M158.7,145c-0.3,0-0.6-0.2-0.7-0.5c-0.1-0.4,0.1-0.8,0.5-0.9l17-5.1c0.4-0.1,0.8,0.1,0.9,0.5
		c0.1,0.4-0.1,0.8-0.5,0.9l-17,5.1C158.9,145,158.8,145,158.7,145z"/>
</g>
<g id="XMLID_72_">
	<line id="XMLID_74_" class="st5" x1="160.5" y1="147.8" x2="180.5" y2="141.7"/>
	<path id="XMLID_73_" class="st0" d="M160.5,148.5c-0.3,0-0.6-0.2-0.7-0.5c-0.1-0.4,0.1-0.8,0.5-0.9l20-6.1c0.4-0.1,0.8,0.1,0.9,0.5
		c0.1,0.4-0.1,0.8-0.5,0.9l-20,6.1C160.7,148.5,160.6,148.5,160.5,148.5z"/>
</g>
<g id="XMLID_69_">
	<line id="XMLID_71_" class="st5" x1="187" y1="135.2" x2="191.9" y2="133.7"/>
	<path id="XMLID_70_" class="st0" d="M187,135.9c-0.3,0-0.6-0.2-0.7-0.5c-0.1-0.4,0.1-0.8,0.5-0.9l4.8-1.5c0.4-0.1,0.8,0.1,0.9,0.5
		c0.1,0.4-0.1,0.8-0.5,0.9l-4.8,1.5C187.2,135.9,187.1,135.9,187,135.9z"/>
</g>
<line id="XMLID_68_" class="st5" x1="195.5" y1="132.6" x2="201" y2="130.9"/>
<path id="XMLID_67_" class="st0" d="M201.2,131.6l-5.5,1.7c-0.1,0-0.1,0-0.2,0c-0.3,0-0.6-0.2-0.7-0.5c-0.1-0.4,0.1-0.8,0.5-0.9
	l5.5-1.7"/>
<polyline id="XMLID_66_" class="st5" points="203.5,136.8 189,141.2 187.9,138 202.5,133.5 "/>
<polyline id="XMLID_65_" class="st0" points="204.4,137.2 188.5,142.1 187,137.5 202.9,132.6 "/>
<polyline id="XMLID_64_" class="st0" points="202,134.4 188.8,138.4 189.5,140.3 202.6,136.3 "/>
<circle id="XMLID_63_" class="st15" cx="97.2" cy="97.2" r="96.7"/>
<g id="XMLID_16_">
	<defs>
		<circle id="XMLID_17_" cx="97.2" cy="97.2" r="96.7"/>
	</defs>
	<clipPath id="XMLID_18_">
		<use xlink:href="#XMLID_17_"  style="overflow:visible;"/>
	</clipPath>
	<g id="XMLID_53_" class="st16">
		
			<use xlink:href="#New_Symbol_2"  width="99.9" height="61.7" id="XMLID_260_" x="-50" y="-30.9" transform="matrix(0.5441 0.3675 0.3675 -0.5441 116.0531 171.0443)" style="overflow:visible;"/>
		
			<use xlink:href="#New_Symbol_2"  width="99.9" height="61.7" id="XMLID_262_" x="-50" y="-30.9" transform="matrix(0.5372 0.2049 0.2049 -0.5372 89.6897 21.7945)" style="overflow:visible;"/>
		
			<use xlink:href="#New_Symbol_2"  width="99.9" height="61.7" id="XMLID_259_" x="-50" y="-30.9" transform="matrix(0.7936 -2.301837e-003 -2.301837e-003 -0.7936 179.3956 207.2308)" style="overflow:visible;"/>
		
			<use xlink:href="#New_Symbol_2"  width="99.9" height="61.7" id="XMLID_258_" x="-50" y="-30.9" transform="matrix(0.7483 -0.6257 -0.6257 -0.7483 83.4424 230.7159)" style="overflow:visible;"/>
		
			<use xlink:href="#New_Symbol_2"  width="99.9" height="61.7" id="XMLID_62_" x="-50" y="-30.9" transform="matrix(0.881 0.3548 0.3548 -0.881 5.7792 192.6858)" style="overflow:visible;"/>
		
			<use xlink:href="#New_Symbol_2"  width="99.9" height="61.7" id="XMLID_261_" x="-50" y="-30.9" transform="matrix(0.2232 0.3792 0.3792 -0.2232 104.0919 61.4134)" style="overflow:visible;"/>
	</g>
</g>
</svg>
